Starting FIT to BIN of H=10, W10
FIT: Packing bin: 0
[[Item 0 [h=8][w=9]FIT @ w=0 | h=0 ]]
FIT: =================
FIT: Packing bin: 1
[[Item 1 [h=10][w=9]FIT @ w=0 | h=0 ]]
FIT: =================
FIT: Packing bin: 2
[[Item 2 [h=5][w=10]FIT @ w=0 | h=0 ]]
[[Item 3 [h=5][w=9]FIT @ w=0 | h=5 ]]
FIT: =================
FIT: Packing bin: 3
[[Item 4 [h=10][w=6]FIT @ w=0 | h=0 ]]
[[Item 5 [h=10][w=2]FIT @ w=6 | h=0 ]]
[[Item 6 [h=8][w=1]FIT @ w=8 | h=0 ]]
FIT: =================
FIT: Packing bin: 4
[[Item 7 [h=9][w=4]FIT @ w=0 | h=0 ]]
[[Item 8 [h=10][w=6]FIT @ w=4 | h=0 ]]
FIT: =================
FIT: Packing bin: 5
[[Item 9 [h=1][w=2]FIT @ w=0 | h=0 ]]
[[Item 10 [h=8][w=9]FIT @ w=0 | h=1 ]]
FIT: =================
FIT: Packing bin: 6
[[Item 11 [h=10][w=8]FIT @ w=0 | h=0 ]]
[[Item 12 [h=3][w=1]FIT @ w=8 | h=0 ]]
FIT: =================
FIT: Packing bin: 7
[[Item 13 [h=8][w=8]FIT @ w=0 | h=0 ]]
[[Item 14 [h=1][w=8]FIT @ w=0 | h=8 ]]
FIT: =================
FIT: Packing bin: 8
[[Item 15 [h=4][w=9]FIT @ w=0 | h=0 ]]
[[Item 16 [h=2][w=1]FIT @ w=9 | h=0 ]]
[[Item 17 [h=1][w=9]FIT @ w=0 | h=4 ]]
[[Item 18 [h=4][w=10]FIT @ w=0 | h=5 ]]
FIT: =================
FIT: Packing bin: 9
[[Item 19 [h=7][w=9]FIT @ w=0 | h=0 ]]
FIT: =================
FIT: Packing bin: 10
[[Item 20 [h=4][w=6]FIT @ w=0 | h=0 ]]
[[Item 21 [h=1][w=7]FIT @ w=0 | h=4 ]]
FIT: =================
FIT: Packing bin: 11
[[Item 22 [h=8][w=5]FIT @ w=0 | h=0 ]]
[[Item 23 [h=10][w=4]FIT @ w=5 | h=0 ]]
FIT: =================
FIT: Packing bin: 12
[[Item 24 [h=5][w=9]FIT @ w=0 | h=0 ]]
[[Item 25 [h=5][w=8]FIT @ w=0 | h=5 ]]
FIT: =================
FIT: Packing bin: 13
[[Item 26 [h=7][w=10]FIT @ w=0 | h=0 ]]
[[Item 27 [h=2][w=10]FIT @ w=0 | h=7 ]]
FIT: =================
FIT: Packing bin: 14
[[Item 28 [h=10][w=1]FIT @ w=0 | h=0 ]]
[[Item 29 [h=10][w=7]FIT @ w=1 | h=0 ]]
FIT: =================
FIT: Packing bin: 15
[[Item 30 [h=1][w=3]FIT @ w=0 | h=0 ]]
[[Item 31 [h=7][w=6]FIT @ w=3 | h=0 ]]
FIT: =================
FIT: Packing bin: 16
[[Item 32 [h=9][w=6]FIT @ w=0 | h=0 ]]
[[Item 33 [h=2][w=3]FIT @ w=6 | h=0 ]]
[[Item 34 [h=1][w=10]FIT @ w=0 | h=9 ]]
FIT: =================
FIT: Packing bin: 17
[[Item 35 [h=9][w=8]FIT @ w=0 | h=0 ]]
FIT: =================
FIT: Packing bin: 18
[[Item 36 [h=6][w=3]FIT @ w=0 | h=0 ]]
[[Item 37 [h=7][w=6]FIT @ w=3 | h=0 ]]
[[Item 38 [h=2][w=6]FIT @ w=0 | h=7 ]]
[[Item 39 [h=1][w=9]FIT @ w=0 | h=9 ]]
FIT: =================
Total used bins: 19
