Starting FIT to BIN of H=10, W10
FIT: Packing bin: 0
[[Item 0 [h=6][w=6]FIT @ w=0 | h=0 ]]
[[Item 1 [h=4][w=9]FIT @ w=0 | h=6 ]]
FIT: =================
FIT: Packing bin: 1
[[Item 2 [h=4][w=4]FIT @ w=0 | h=0 ]]
[[Item 3 [h=7][w=4]FIT @ w=4 | h=0 ]]
[[Item 4 [h=9][w=2]FIT @ w=8 | h=0 ]]
FIT: =================
FIT: Packing bin: 2
[[Item 5 [h=2][w=6]FIT @ w=0 | h=0 ]]
[[Item 6 [h=7][w=8]FIT @ w=0 | h=2 ]]
[[Item 7 [h=5][w=2]FIT @ w=8 | h=2 ]]
FIT: =================
FIT: Packing bin: 3
[[Item 8 [h=5][w=9]FIT @ w=0 | h=0 ]]
[[Item 9 [h=1][w=4]FIT @ w=0 | h=5 ]]
[[Item 10 [h=1][w=5]FIT @ w=4 | h=5 ]]
[[Item 11 [h=4][w=6]FIT @ w=0 | h=6 ]]
FIT: =================
FIT: Packing bin: 4
[[Item 12 [h=5][w=2]FIT @ w=0 | h=0 ]]
[[Item 13 [h=8][w=2]FIT @ w=2 | h=0 ]]
[[Item 14 [h=4][w=5]FIT @ w=4 | h=0 ]]
FIT: =================
FIT: Packing bin: 5
[[Item 15 [h=9][w=10]FIT @ w=0 | h=0 ]]
FIT: =================
FIT: Packing bin: 6
[[Item 16 [h=7][w=10]FIT @ w=0 | h=0 ]]
[[Item 17 [h=3][w=1]FIT @ w=0 | h=7 ]]
[[Item 18 [h=1][w=6]FIT @ w=1 | h=7 ]]
[[Item 19 [h=1][w=2]FIT @ w=7 | h=7 ]]
FIT: =================
Total used bins: 7
