Starting FIT to BIN of H=10, W10
FIT: Packing bin: 0
[[Item 0 [h=5][w=9]FIT @ w=0 | h=0 ]]
[[Item 1 [h=5][w=3]FIT @ w=0 | h=5 ]]
FIT: =================
FIT: Packing bin: 1
[[Item 2 [h=10][w=10]FIT @ w=0 | h=0 ]]
FIT: =================
FIT: Packing bin: 2
[[Item 3 [h=1][w=10]FIT @ w=0 | h=0 ]]
[[Item 4 [h=9][w=7]FIT @ w=0 | h=1 ]]
[[Item 5 [h=9][w=3]FIT @ w=7 | h=1 ]]
FIT: =================
FIT: Packing bin: 3
[[Item 6 [h=8][w=6]FIT @ w=0 | h=0 ]]
[[Item 7 [h=10][w=3]FIT @ w=6 | h=0 ]]
FIT: =================
FIT: Packing bin: 4
[[Item 8 [h=10][w=5]FIT @ w=0 | h=0 ]]
[[Item 9 [h=6][w=5]FIT @ w=5 | h=0 ]]
FIT: =================
FIT: Packing bin: 5
[[Item 10 [h=8][w=2]FIT @ w=0 | h=0 ]]
[[Item 11 [h=7][w=6]FIT @ w=2 | h=0 ]]
FIT: =================
FIT: Packing bin: 6
[[Item 12 [h=9][w=6]FIT @ w=0 | h=0 ]]
[[Item 13 [h=7][w=3]FIT @ w=6 | h=0 ]]
[[Item 14 [h=6][w=1]FIT @ w=9 | h=0 ]]
FIT: =================
FIT: Packing bin: 7
[[Item 15 [h=2][w=8]FIT @ w=0 | h=0 ]]
[[Item 16 [h=7][w=8]FIT @ w=0 | h=2 ]]
[[Item 17 [h=7][w=2]FIT @ w=8 | h=2 ]]
FIT: =================
FIT: Packing bin: 8
[[Item 18 [h=9][w=7]FIT @ w=0 | h=0 ]]
[[Item 19 [h=10][w=3]FIT @ w=7 | h=0 ]]
FIT: =================
Total used bins: 9
